<?xml version="1.0" encoding="UTF-8" standalone="no"?>
<svg
   xmlns:dc="http://purl.org/dc/elements/1.1/"
   xmlns:cc="http://creativecommons.org/ns#"
   xmlns:rdf="http://www.w3.org/1999/02/22-rdf-syntax-ns#"
   xmlns:svg="http://www.w3.org/2000/svg"
   xmlns="http://www.w3.org/2000/svg"
   xmlns:sodipodi="http://sodipodi.sourceforge.net/DTD/sodipodi-0.dtd"
   xmlns:inkscape="http://www.inkscape.org/namespaces/inkscape"
   version="1.0"
   width="1964.000000pt"
   height="481.000000pt"
   viewBox="0 0 1964.000000 481.000000"
   preserveAspectRatio="xMidYMid meet"
   id="svg3224"
   inkscape:version="0.48.4 r9939"
   sodipodi:docname="PET_logo_2014_horizontal.svg">
  <defs
     id="defs3318" />
  <sodipodi:namedview
     pagecolor="#ffffff"
     bordercolor="#666666"
     borderopacity="1"
     objecttolerance="10"
     gridtolerance="10"
     guidetolerance="10"
     inkscape:pageopacity="0"
     inkscape:pageshadow="2"
     inkscape:window-width="1002"
     inkscape:window-height="703"
     id="namedview3316"
     showgrid="false"
     inkscape:zoom="2.9493985"
     inkscape:cx="324.18912"
     inkscape:cy="534.13961"
     inkscape:window-x="0"
     inkscape:window-y="0"
     inkscape:window-maximized="0"
     inkscape:current-layer="svg3224" />
  <metadata
     id="metadata3226">
Created by potrace 1.11, written by Peter Selinger 2001-2013
<rdf:RDF>
  <cc:Work
     rdf:about="">
    <dc:format>image/svg+xml</dc:format>
    <dc:type
       rdf:resource="http://purl.org/dc/dcmitype/StillImage" />
  </cc:Work>
</rdf:RDF>
</metadata>
  <g
     transform="translate(0.000000,481.000000) scale(0.100000,-0.100000)"
     fill="#000000"
     stroke="none"
     id="g3228">
    <path
       d="M2406 4801 c-4 -6 -9 -73 -13 -151 -6 -138 -6 -140 16 -140 20 0 21 5 23 88 1 105 2 109 9 116 3 4 11 -13 18 -36 66 -227 68 -228 135 -60 l46 117 -6 -117 c-5 -112 -4 -118 14 -118 17 0 20 10 25 83 4 45 7 113 7 150 0 68 0 68 -27 65 -24 -3 -31 -14 -74 -123 l-47 -120 -21 75 c-39 131 -52 170 -61 170 -5 0 -15 3 -23 6 -8 3 -18 1 -21 -5z"
       id="path3230" />
    <path
       d="M2891 4723 c-6 -21 -20 -78 -31 -128 -11 -49 -23 -97 -26 -106 -4 -13 13 -21 93 -39 54 -12 104 -25 111 -27 7 -3 12 3 12 15 0 17 -12 23 -75 38 -41 10 -79 20 -84 24 -13 7 7 90 22 90 6 0 40 -7 75 -16 47 -12 67 -13 75 -5 17 17 0 27 -81 46 -62 15 -72 20 -67 36 3 11 8 28 11 39 7 24 18 25 96 4 62 -16 93 -13 86 7 -3 9 -166 57 -200 59 -4 0 -12 -17 -17 -37z"
       id="path3232" />
    <path
       d="M1770 4702 c0 -5 14 -48 30 -97 17 -49 30 -101 30 -115 0 -31 -23 -56 -63 -65 -48 -12 -70 13 -108 124 -31 93 -48 117 -64 91 -9 -14 52 -193 76 -224 25 -31 67 -40 118 -25 54 16 83 48 83 93 0 19 -14 78 -32 130 -25 77 -35 96 -51 96 -10 0 -19 -4 -19 -8z"
       id="path3234" />
    <path
       d="M3271 4550 c-23 -49 -50 -110 -61 -135 l-19 -45 57 -26 c104 -46 139 -45 191 8 60 61 71 158 24 211 -14 15 -132 77 -147 77 -2 0 -22 -40 -45 -90z m118 15 c27 -13 51 -31 55 -40 25 -65 -30 -174 -89 -175 -28 0 -105 31 -105 43 0 10 83 197 88 197 1 0 24 -11 51 -25z"
       id="path3236" />
    <path
       d="M1377 4548 c-9 -7 -29 -53 -43 -103 -14 -49 -27 -91 -29 -93 -1 -2 -17 22 -34 53 -29 51 -52 68 -65 46 -6 -9 127 -254 141 -258 4 -1 14 1 22 6 11 7 8 17 -13 53 -16 28 -24 53 -20 64 3 11 8 25 10 32 2 9 28 0 84 -28 65 -33 84 -38 100 -30 11 6 20 13 20 16 0 3 -43 25 -95 50 l-94 44 16 52 c30 101 32 108 24 108 -4 0 -15 -6 -24 -12z"
       id="path3238" />
    <path
       d="M973 4279 c-21 -11 -60 -39 -86 -62 l-48 -42 92 -110 c50 -61 94 -111 99 -113 4 -1 12 3 18 11 9 10 2 24 -29 62 l-41 49 29 23 c34 28 45 28 124 3 59 -18 64 -18 82 -2 18 16 16 17 -30 33 -26 10 -60 18 -75 18 -27 1 -27 2 -22 45 8 52 -6 80 -45 94 -23 8 -37 6 -68 -9z"
       id="path3240" />
    <path
       d="M3880 4229 c-32 -13 -78 -56 -96 -91 -21 -40 -18 -105 7 -139 38 -54 121 -77 164 -45 16 12 17 16 6 30 -10 11 -18 13 -31 6 -54 -29 -120 11 -120 72 0 42 31 93 72 118 44 27 70 25 108 -7 27 -23 31 -32 28 -64 -2 -26 1 -40 10 -44 22 -8 32 4 32 41 0 52 -24 89 -73 113 -47 23 -69 25 -107 10z"
       id="path3242" />
    <path
       d="M1940 4151 c-86 -27 -146 -83 -198 -187 -43 -84 -73 -243 -88 -456 -3 -54 -8 -98 -11 -98 -2 0 -57 10 -121 22 -87 16 -157 22 -272 22 -139 1 -163 -2 -230 -24 -138 -45 -200 -138 -187 -279 10 -118 104 -282 268 -469 44 -52 77 -97 73 -101 -5 -5 -49 -35 -99 -69 -252 -171 -375 -325 -383 -481 -3 -60 0 -71 30 -121 63 -105 198 -170 424 -206 121 -19 463 -23 611 -7 l82 9 7 -31 c23 -103 -5 -239 -67 -323 -65 -88 -236 -138 -387 -112 -60 10 -75 16 -82 34 -6 16 -31 31 -92 54 -45 17 -97 34 -114 37 -41 8 -97 67 -128 135 -16 36 -25 47 -25 33 -1 -29 -15 -36 -43 -23 -13 6 2 -10 32 -37 93 -81 116 -106 102 -111 -24 -8 -11 -30 54 -92 l65 -63 65 6 c56 4 71 1 108 -19 111 -62 325 -83 442 -44 106 36 209 133 236 223 8 26 13 92 12 169 l-1 128 98 -198 c263 -534 542 -804 767 -741 145 41 245 274 267 627 7 97 10 112 24 107 70 -21 273 -46 386 -46 290 0 424 94 408 290 -11 143 -100 302 -277 499 -36 40 -66 76 -66 80 0 4 40 33 88 64 171 112 322 261 373 367 30 62 37 158 15 216 -39 102 -173 182 -376 227 -96 21 -129 23 -402 23 l-297 0 -6 25 c-17 80 -24 184 -15 231 22 114 92 199 199 240 110 42 336 34 343 -13 4 -23 93 -64 183 -84 50 -11 66 -20 97 -55 21 -23 43 -60 50 -83 15 -53 28 -68 28 -32 0 25 3 28 26 23 22 -4 12 9 -49 65 -67 61 -75 71 -65 88 10 16 4 26 -51 78 -66 64 -97 75 -159 61 -28 -6 -45 -2 -91 21 -68 35 -147 56 -238 65 -179 18 -355 -70 -423 -210 -32 -67 -38 -203 -16 -333 21 -121 21 -122 -10 -122 -21 0 -29 9 -50 58 -154 348 -333 632 -500 793 -92 88 -146 122 -229 143 -65 17 -78 18 -115 7z m200 -326 c135 -68 282 -216 417 -420 63 -95 158 -264 152 -270 -2 -1 -54 -13 -115 -26 l-112 -23 -131 62 c-162 77 -374 161 -527 207 -63 19 -118 35 -121 35 -8 0 6 95 27 182 36 146 106 247 192 276 56 19 156 9 218 -23z m-494 -568 c3 -3 8 -34 11 -69 2 -35 10 -120 18 -190 8 -70 15 -134 15 -143 0 -9 -28 -27 -72 -47 -40 -17 -144 -67 -231 -111 -87 -44 -159 -78 -161 -76 -42 50 -128 179 -146 220 -34 77 -40 200 -12 256 61 119 211 175 454 170 65 -2 120 -6 124 -10z m159 -22 c124 -24 288 -70 436 -122 l134 -47 -95 -29 c-52 -15 -189 -59 -305 -98 -115 -38 -219 -72 -231 -75 -20 -5 -22 0 -33 83 -6 49 -14 137 -17 196 -8 124 -18 116 111 92z m1684 -110 c160 -36 256 -89 306 -169 26 -43 30 -59 29 -120 0 -103 -47 -188 -178 -324 -55 -57 -107 -107 -117 -112 -13 -7 -32 4 -85 51 -95 84 -290 233 -404 309 -52 35 -99 67 -104 71 -5 4 5 29 22 55 42 63 71 141 73 201 1 26 4 52 7 57 8 14 369 -1 451 -19z m-747 -47 c22 -39 76 -163 73 -166 -5 -6 -265 140 -265 148 0 7 123 36 162 39 10 0 23 -9 30 -21z m-64 -155 c83 -42 152 -80 152 -84 0 -14 -32 -19 -90 -12 -56 5 -60 4 -89 -24 -37 -38 -47 -86 -28 -138 8 -22 24 -66 36 -97 27 -75 27 -123 -4 -210 -14 -39 -23 -73 -20 -76 7 -7 65 90 75 128 13 47 12 78 -5 194 -8 54 -12 109 -9 121 8 31 55 52 124 57 l54 3 53 -155 c50 -150 115 -391 129 -477 l6 -42 -72 -36 c-109 -55 -266 -116 -461 -180 l-175 -58 -177 87 c-105 51 -177 92 -177 101 0 43 105 72 282 79 76 3 154 10 175 15 55 15 125 63 146 100 l19 32 -58 -33 c-64 -35 -59 -35 -304 -29 -124 3 -182 -8 -283 -53 l-57 -25 -59 182 c-32 100 -74 246 -92 325 -30 128 -32 144 -18 158 27 26 266 124 478 194 l204 68 46 -19 c25 -11 115 -54 199 -96z m385 -225 c171 -112 407 -307 407 -337 0 -13 -179 -131 -285 -188 -95 -50 -84 -58 -110 77 -28 145 -102 428 -131 505 -4 8 -3 15 1 15 4 0 57 -33 118 -72z m-1319 -119 c33 -152 105 -428 122 -474 16 -40 -328 206 -469 336 l-79 72 24 19 c68 53 339 218 358 218 4 0 23 -77 44 -171z m-357 -176 c101 -86 292 -229 398 -299 50 -32 91 -59 92 -59 1 0 -9 -31 -23 -70 -17 -51 -24 -92 -24 -152 l0 -81 -97 -7 c-126 -10 -306 -1 -408 20 -270 56 -377 164 -340 347 16 83 68 161 188 282 98 99 109 107 125 94 9 -8 49 -42 89 -75z m2251 -226 c83 -114 114 -185 120 -272 6 -97 -13 -150 -75 -204 -56 -50 -126 -77 -240 -92 -101 -13 -273 -5 -285 14 -4 7 -8 36 -8 65 0 30 -7 119 -16 198 -9 80 -15 146 -13 148 2 2 90 44 195 93 106 50 202 98 215 107 13 9 30 16 39 16 8 -1 39 -33 68 -73z m-554 -189 c13 -72 26 -217 26 -290 0 -92 13 -88 -154 -53 -170 35 -402 108 -495 155 l-34 17 104 26 c121 30 352 104 459 146 41 16 78 30 81 30 4 1 9 -14 13 -31z m-931 -106 c60 -33 104 -62 100 -65 -5 -3 -46 -13 -93 -23 -81 -16 -84 -16 -98 2 -15 20 -65 125 -77 164 l-7 23 33 -21 c19 -11 83 -47 142 -80z m282 -146 c182 -89 605 -246 662 -246 11 0 13 -8 9 -27 -3 -16 -10 -57 -16 -93 -23 -139 -67 -236 -133 -297 -53 -49 -110 -67 -186 -60 -160 17 -381 219 -569 522 -46 76 -112 198 -112 210 0 3 15 5 33 6 17 0 66 9 107 19 41 9 80 18 85 19 6 0 60 -23 120 -53z"
       id="path3244" />
    <path
       d="M2310 2643 c-75 -40 -112 -99 -112 -180 1 -132 90 -226 217 -226 131 0 221 98 213 230 -7 112 -87 190 -206 200 -49 4 -65 1 -112 -24z"
       id="path3246" />
    <path
       d="M670 4005 c-13 -16 -6 -23 92 -102 66 -54 80 -80 63 -120 -16 -37 -48 -57 -80 -49 -12 3 -58 35 -101 71 -61 50 -81 62 -91 53 -8 -6 -12 -14 -11 -18 4 -9 122 -109 158 -133 39 -27 84 -22 124 14 56 48 65 111 24 159 -15 17 -157 140 -162 140 -2 0 -9 -7 -16 -15z"
       id="path3248" />
    <path
       d="M4170 3885 c-41 -12 -101 -30 -132 -40 -59 -17 -64 -21 -50 -42 6 -10 18 -9 54 2 l47 14 36 -49 36 -49 -26 -42 c-24 -38 -25 -43 -11 -57 8 -9 17 -14 19 -11 6 7 133 222 146 247 10 18 10 27 0 38 -15 18 -28 17 -119 -11z"
       id="path3250" />
    <path
       d="M374 3594 c-51 -87 -61 -124 -35 -124 6 0 20 18 31 40 l21 40 32 -16 c17 -10 48 -27 67 -39 119 -73 128 -77 139 -56 9 17 -2 26 -99 82 -61 34 -110 66 -110 70 0 5 9 23 20 41 24 40 24 44 5 52 -11 4 -31 -22 -71 -90z"
       id="path3252" />
    <path
       d="M4330 3583 c-69 -36 -127 -67 -129 -69 -9 -8 73 -164 85 -164 26 0 24 22 -7 80 -18 32 -31 61 -29 63 3 2 50 27 105 56 117 62 120 64 108 85 -7 13 -28 5 -133 -51z"
       id="path3254" />
    <path
       d="M14903 3290 c-235 -42 -415 -227 -483 -495 -43 -169 -41 -450 4 -629 91 -356 309 -529 626 -495 228 25 395 191 466 462 8 33 14 60 12 61 -6 5 -154 46 -163 46 -6 0 -16 -27 -23 -59 -27 -129 -111 -250 -210 -300 -82 -42 -215 -43 -308 -2 -63 28 -146 117 -184 197 -49 102 -70 222 -71 404 0 220 32 360 110 473 79 115 214 175 357 157 135 -17 235 -110 284 -265 7 -22 15 -43 19 -47 7 -8 150 28 164 41 14 13 -51 173 -99 243 -67 99 -162 168 -270 197 -60 16 -171 21 -231 11z"
       id="path3256" />
    <path
       d="M5320 3175 l0 -95 210 0 210 0 0 -695 0 -695 90 0 90 0 0 695 0 695 209 0 210 0 5 53 c5 43 4 83 -3 130 -1 4 -230 7 -511 7 l-510 0 0 -95z"
       id="path3258" />
    <path
       d="M8036 3254 c-9 -24 -6 -1537 3 -1552 5 -9 30 -12 82 -10 l74 3 1 227 2 227 52 61 c48 55 54 59 65 43 10 -15 98 -180 270 -505 l30 -58 98 0 98 0 -17 33 c-9 17 -97 179 -196 359 l-179 328 175 207 c97 114 176 211 176 215 0 3 -45 5 -101 4 -70 -2 -104 -7 -113 -17 -7 -8 -71 -86 -141 -174 -167 -207 -207 -255 -214 -255 -3 0 -6 197 -6 437 l0 438 -76 3 c-64 2 -78 0 -83 -14z"
       id="path3260" />
    <path
       d="M10460 2480 l0 -790 85 0 85 0 0 319 0 319 238 4 c213 4 243 7 300 27 117 40 169 86 221 190 41 82 55 153 55 271 -2 256 -119 408 -340 440 -38 5 -198 10 -356 10 l-288 0 0 -790z m640 589 c61 -14 104 -49 134 -112 36 -72 43 -162 22 -246 -21 -84 -55 -127 -125 -160 -54 -25 -63 -26 -278 -29 l-223 -4 0 281 0 281 213 0 c116 0 232 -5 257 -11z"
       id="path3262" />
    <path
       d="M11670 2480 l0 -790 480 0 480 0 0 95 0 95 -395 0 -395 0 0 265 0 265 358 2 357 3 2 93 2 92 -360 0 -359 0 0 240 0 240 380 0 380 0 0 95 0 95 -465 0 -465 0 0 -790z"
       id="path3264" />
    <path
       d="M12770 3175 l0 -95 215 0 215 0 0 -695 0 -695 85 0 85 0 0 695 0 695 215 0 215 0 0 95 0 95 -515 0 -515 0 0 -95z"
       id="path3266" />
    <path
       d="M17838 3174 l-78 -56 0 -139 0 -139 -42 -2 c-24 0 -50 -1 -58 -2 -12 -1 -15 -16 -16 -66 0 -36 1 -71 4 -77 2 -8 24 -13 57 -13 l54 0 3 -427 c3 -405 4 -430 23 -467 33 -65 82 -97 158 -103 36 -3 86 -2 112 1 l47 8 -6 56 c-14 121 -15 122 -47 115 -15 -3 -45 -2 -64 1 -63 12 -65 24 -65 446 l0 370 80 0 80 0 0 80 0 80 -80 0 -80 0 -2 195 -3 195 -77 -56z"
       id="path3268" />
    <path
       d="M7705 2842 c-37 -23 -73 -65 -100 -115 -20 -37 -33 -47 -32 -24 0 6 -1 39 -1 72 l-2 61 -67 -1 -68 0 -3 -572 -2 -573 80 0 80 0 0 334 c0 442 18 547 102 608 40 28 108 31 157 5 19 -9 36 -15 39 -13 9 10 51 169 46 177 -13 21 -92 52 -143 56 -44 3 -63 0 -86 -15z"
       id="path3270" />
    <path
       d="M15995 2847 c-119 -40 -203 -115 -259 -230 -52 -106 -70 -205 -68 -372 1 -214 42 -342 140 -448 87 -92 172 -129 303 -129 189 0 325 100 389 287 11 32 20 64 20 70 0 8 -29 17 -76 24 -76 11 -94 9 -94 -11 0 -19 -52 -113 -78 -142 -58 -62 -169 -84 -250 -51 -50 21 -108 80 -139 139 -24 47 -52 157 -53 204 l0 22 350 0 350 0 0 68 c-1 265 -95 458 -265 544 -50 26 -74 31 -145 34 -53 3 -100 -1 -125 -9z m169 -158 c54 -13 108 -57 141 -114 23 -39 62 -182 52 -192 -3 -2 -120 -5 -262 -6 l-257 -2 7 50 c19 146 134 273 248 275 16 0 48 -5 71 -11z"
       id="path3272" />
    <path
       d="M17053 2842 c-63 -23 -115 -61 -153 -114 l-29 -40 -3 74 -3 73 -70 0 -70 0 -3 -572 -2 -573 79 0 79 0 5 383 c3 331 6 390 22 439 21 69 74 134 129 159 48 22 124 24 169 5 47 -19 93 -76 106 -132 7 -32 12 -193 14 -449 l2 -400 74 -3 c49 -2 77 1 82 9 11 18 11 660 -1 796 -16 192 -52 265 -161 323 -81 43 -184 51 -266 22z"
       id="path3274" />
    <path
       d="M18493 2834 c-27 -18 -55 -51 -80 -93 l-38 -65 -5 80 -5 80 -65 -1 -65 0 -3 -572 -2 -573 80 0 80 0 0 350 c0 439 12 518 90 583 45 39 93 44 153 18 28 -11 51 -20 52 -18 9 13 53 173 49 179 -13 20 -92 51 -143 55 -49 4 -61 1 -98 -23z"
       id="path3276" />
    <path
       d="M19087 2841 c-183 -60 -293 -242 -312 -517 -27 -390 150 -656 435 -656 158 0 278 63 354 185 20 33 66 151 66 171 0 8 -24 17 -69 25 -97 16 -94 16 -114 -39 -40 -113 -124 -180 -224 -180 -130 0 -229 97 -268 262 -8 35 -15 75 -15 91 l0 27 352 0 351 0 -6 108 c-7 122 -34 236 -73 313 -39 79 -123 161 -197 195 -82 37 -195 43 -280 15z m235 -173 c75 -41 132 -143 140 -251 l3 -37 -258 -3 -257 -2 0 26 c0 15 9 56 20 92 54 173 212 252 352 175z"
       id="path3278" />
    <path
       d="M6431 2832 c-8 -3 -11 -105 -11 -380 0 -508 12 -596 89 -684 90 -101 258 -132 380 -68 36 18 104 84 135 130 15 24 16 22 16 -58 l0 -82 70 0 70 0 0 574 0 575 -77 -2 -78 -2 -5 -390 c-6 -430 -10 -461 -71 -529 -58 -67 -158 -94 -242 -67 -44 15 -92 67 -108 118 -8 26 -13 172 -16 443 -2 223 -6 411 -8 418 -3 9 -24 12 -68 10 -35 -1 -69 -4 -76 -6z"
       id="path3280" />
    <path
       d="M8947 2833 c-17 -4 -18 -27 -15 -451 5 -514 6 -525 86 -613 53 -59 100 -85 176 -97 112 -18 223 22 297 107 21 24 39 48 39 52 0 5 4 9 9 9 4 0 8 -28 9 -62 0 -35 0 -69 1 -75 1 -9 22 -13 71 -13 l70 0 -2 573 -3 572 -77 1 -78 1 0 -333 c0 -438 -13 -525 -88 -600 -43 -44 -93 -65 -155 -65 -60 -1 -99 15 -139 58 -52 54 -52 58 -56 509 l-3 422 -37 6 c-41 6 -77 6 -105 -1z"
       id="path3282" />
    <path
       d="M95 2258 c-125 -44 -124 -215 3 -253 19 -5 22 -3 22 19 0 19 -5 26 -19 26 -28 0 -61 47 -61 85 0 59 85 106 161 90 65 -15 92 -105 44 -149 -16 -15 -23 -30 -19 -40 7 -19 14 -20 34 -3 101 79 36 239 -95 236 -22 0 -53 -5 -70 -11z"
       id="path3284" />
    <path
       d="M4517 2253 c-3 -10 -11 -52 -17 -93 -6 -41 -13 -87 -16 -102 -5 -23 -2 -28 15 -28 16 0 21 9 27 45 7 53 7 52 134 30 113 -20 130 -19 130 4 0 16 -16 21 -122 37 l-123 19 0 49 c0 49 -18 74 -28 39z"
       id="path3286" />
    <path
       d="M271 1831 c-58 -73 -67 -80 -122 -95 -36 -11 -59 -23 -59 -31 0 -24 18 -27 73 -9 54 17 54 17 153 -14 54 -17 99 -30 100 -29 1 1 -2 11 -6 23 -6 15 -29 27 -84 43 l-76 23 50 58 c50 57 57 74 42 97 -5 8 -29 -14 -71 -66z"
       id="path3288" />
    <path
       d="M4448 1857 c-50 -41 -63 -118 -28 -175 38 -62 153 -91 220 -57 32 16 53 51 64 102 13 59 -49 149 -73 106 -7 -13 -3 -24 15 -46 32 -38 30 -72 -5 -108 -21 -21 -39 -29 -63 -29 -43 1 -113 33 -127 58 -27 50 3 127 52 134 12 2 23 11 25 21 5 25 -47 22 -80 -6z"
       id="path3290" />
    <path
       d="M4282 1488 c-45 -77 -84 -149 -81 -152 17 -13 247 -136 255 -136 13 0 107 178 99 190 -13 21 -26 8 -66 -65 -22 -41 -43 -75 -45 -75 -3 0 -22 10 -44 22 l-38 22 39 72 c21 39 36 74 32 77 -16 17 -31 3 -64 -58 -18 -36 -38 -65 -42 -65 -15 0 -67 31 -67 40 0 5 16 39 36 74 32 60 37 86 14 86 -5 0 -17 -15 -28 -32z"
       id="path3292" />
    <path
       d="M329 1467 c-101 -54 -118 -169 -34 -235 38 -30 105 -31 105 -2 0 16 -7 20 -35 20 -68 0 -109 81 -69 138 20 29 85 62 122 62 63 0 111 -75 78 -124 -12 -20 -13 -27 -2 -42 13 -17 15 -16 35 16 25 41 26 59 7 103 -34 83 -120 110 -207 64z"
       id="path3294" />
    <path
       d="M4086 1175 c-4 -11 22 -37 83 -86 95 -75 107 -90 91 -120 -12 -21 -32 -24 -60 -9 -25 14 -38 -19 -14 -37 55 -40 140 29 119 97 -6 20 -186 170 -203 170 -6 0 -12 -7 -16 -15z"
       id="path3296" />
    <path
       d="M548 1088 l-117 -90 56 -73 c34 -43 62 -71 70 -68 20 8 16 22 -20 67 -18 23 -37 46 -40 53 -5 7 30 40 93 89 55 42 100 80 100 84 0 4 -6 12 -12 18 -10 7 -45 -15 -130 -80z"
       id="path3298" />
    <path
       d="M3835 895 c-45 -23 -75 -73 -75 -127 0 -104 127 -191 213 -147 91 47 112 149 45 225 -56 63 -120 80 -183 49z m128 -55 c63 -55 71 -116 22 -166 -44 -44 -124 -25 -164 39 -30 49 -27 92 8 128 40 40 88 40 134 -1z"
       id="path3300" />
    <path
       d="M799 857 c-18 -12 -44 -38 -57 -57 -60 -89 10 -220 118 -220 63 0 143 69 155 134 23 120 -115 211 -216 143z m153 -44 c45 -40 28 -119 -35 -167 -46 -35 -90 -34 -128 3 -47 47 -34 125 28 169 48 34 94 32 135 -5z"
       id="path3302" />
    <path
       d="M1167 664 c-15 -15 -6 -30 28 -48 19 -11 35 -24 35 -29 0 -5 -27 -54 -61 -109 -56 -89 -68 -128 -40 -128 5 0 40 49 77 109 l68 109 38 -24 c38 -24 58 -24 58 -1 0 7 -41 37 -92 67 -106 64 -102 62 -111 54z"
       id="path3304" />
    <path
       d="M3452 607 c-39 -23 -71 -46 -70 -52 8 -28 145 -245 156 -245 25 0 23 29 -7 76 l-31 49 21 18 c29 24 71 21 129 -8 56 -28 73 -31 88 -12 9 10 -1 19 -44 40 -30 15 -64 27 -75 27 -19 0 -19 1 -5 22 38 53 3 128 -60 128 -16 0 -62 -19 -102 -43z"
       id="path3306" />
    <path
       d="M1493 472 c-4 -9 -28 -71 -54 -137 -38 -97 -44 -122 -33 -128 21 -12 30 -2 50 53 20 56 36 62 77 30 18 -15 30 -39 41 -87 14 -62 27 -82 52 -83 12 0 -8 107 -27 142 -8 16 -5 18 24 18 43 0 71 30 71 76 0 45 -14 57 -112 99 -75 31 -83 33 -89 17z"
       id="path3308" />
    <path
       d="M3105 441 c-38 -15 -69 -31 -68 -36 1 -6 23 -67 50 -137 33 -89 53 -128 64 -128 26 0 27 9 8 61 -11 27 -19 53 -19 58 0 4 18 13 40 20 57 17 100 56 100 91 0 41 -18 76 -47 89 -34 15 -49 13 -128 -18z"
       id="path3310" />
    <path
       d="M1897 310 c-80 -70 -73 -211 13 -255 41 -21 113 -22 145 -1 79 52 93 183 26 249 -25 26 -40 31 -89 35 -55 4 -61 2 -95 -28z m128 -14 c45 -19 58 -47 53 -114 -4 -47 -10 -60 -38 -85 -27 -24 -39 -28 -68 -23 -53 8 -87 47 -87 99 0 60 23 107 59 123 39 17 40 17 81 0z"
       id="path3312" />
    <path
       d="M2498 201 l-3 -109 -74 104 c-59 83 -79 104 -98 104 -23 0 -24 -1 -19 -77 2 -43 5 -108 5 -145 1 -62 3 -68 22 -68 19 0 20 5 17 99 -1 55 0 102 2 105 3 2 39 -43 79 -100 59 -82 79 -104 95 -102 12 2 21 9 20 16 -1 6 -2 73 -2 147 -2 127 -3 135 -22 135 -18 0 -20 -8 -22 -109z"
       id="path3314" />
  </g>
  <path
     style="fill:none;stroke:#000000;stroke-width:5.20000000000000018;stroke-linecap:round;stroke-linejoin:miter;stroke-opacity:1;stroke-miterlimit:4;stroke-dasharray:none"
     d="m 464.14844,47.916015 c -18.2207,28.769531 -18.2207,28.769531 -18.2207,28.769531 l -0.95899,0"
     id="path3322"
     inkscape:connector-curvature="0"
     transform="scale(0.8,0.8)" />
  <path
     style="fill:none;stroke:#000000;stroke-width:1px;stroke-linecap:butt;stroke-linejoin:miter;stroke-opacity:1"
     d="m 120.36352,87.246898 c -7.45914,-8.476304 -8.13725,-7.459148 -8.13725,-7.459148 l 10.51062,-7.459148 5.08578,-2.373365 3.39052,2.373365 0.67811,6.441992 -1.01716,2.712417 z"
     id="path4092"
     inkscape:connector-curvature="0"
     transform="scale(0.8,0.8)" />
  <path
     style="fill:#ffffff;stroke:#000000;stroke-width:1px;stroke-linecap:butt;stroke-linejoin:miter;stroke-opacity:1;fill-opacity:1"
     d="m 113.24343,80.465854 11.52777,-8.815356 4.06863,-0.678105 3.39052,2.712418 -1.35621,5.424835 -1.01716,3.051469 -9.49346,6.10294 z"
     id="path4094"
     inkscape:connector-curvature="0"
     transform="scale(0.8,0.8)" />
  <path
     style="fill:#ffffff;stroke:#000000;stroke-width:1px;stroke-linecap:butt;stroke-linejoin:miter;stroke-opacity:1;fill-opacity:1"
     d="m 515.35931,122.50832 16.61356,-5.08578 -8.81536,15.93545 z"
     id="path4098"
     inkscape:connector-curvature="0"
     transform="scale(0.8,0.8)" />
  <path
     style="fill:#ffffff;stroke:#000000;stroke-width:1px;stroke-linecap:butt;stroke-linejoin:miter;stroke-opacity:1;fill-opacity:1"
     d="m 429.57911,533.43956 5.76389,10.17157 11.18872,-7.45915 2.37336,-6.44199 -3.05147,-3.72957 -3.39052,-1.35621 -3.72957,3.05147 -5.76389,4.06862 z"
     id="path4100"
     inkscape:connector-curvature="0"
     transform="scale(0.8,0.8)" />
  <path
     style="fill:#ffffff;stroke:#000000;stroke-width:1px;stroke-linecap:butt;stroke-linejoin:miter;stroke-opacity:1;fill-opacity:1"
     d="m 385.50233,552.42649 4.40767,10.51061 4.06863,0 7.1201,-3.05147 3.72957,-3.72957 0.33905,-3.72957 -1.69526,-3.39053 -3.05147,-1.69526 -5.42483,0.67811 -2.71242,1.01715 z"
     id="path4102"
     inkscape:connector-curvature="0"
     transform="scale(0.8,0.8)" />
  <path
     style="fill:#ffffff;stroke:#000000;stroke-width:1px;stroke-linecap:butt;stroke-linejoin:miter;stroke-opacity:1;fill-opacity:1"
     d="m 190.20827,547.67976 -3.39052,9.49346 4.74673,1.35621 3.05147,1.69526 2.71242,1.35621 4.40768,0 3.72957,-1.01716 1.01716,-1.01716 0.33905,-1.69526 0.6781,-3.39052 -3.05147,-2.37337 -4.40767,-1.69526 -3.05147,-1.01715 -3.05147,-1.01716 z"
     id="path4104"
     inkscape:connector-curvature="0"
     transform="scale(0.8,0.8)" />
</svg>
